<svg width="22" height="22" viewBox="0 0 22 22" fill="none" xmlns="http://www.w3.org/2000/svg">
<path d="M14.4571 15.7929C14.8476 16.1834 14.8476 16.8166 14.4571 17.2071C14.0666 17.5976 13.4334 17.5976 13.0429 17.2071L14.4571 15.7929ZM8.25 11L7.54289 11.7071L6.83579 11L7.54289 10.2929L8.25 11ZM13.0429 4.79289C13.4334 4.40237 14.0666 4.40237 14.4571 4.79289C14.8476 5.18342 14.8476 5.81658 14.4571 6.20711L13.0429 4.79289ZM13.0429 17.2071L7.54289 11.7071L8.95711 10.2929L14.4571 15.7929L13.0429 17.2071ZM7.54289 10.2929L13.0429 4.79289L14.4571 6.20711L8.95711 11.7071L7.54289 10.2929Z" fill="white" fill-opacity="0.6"/>
</svg>
